module bitbucket.org/perfectgentlemande/go-net-http-pprof-example

go 1.17

require (
	github.com/google/uuid v1.3.0 // indirect
	github.com/sirupsen/logrus v1.8.1 // indirect
	golang.org/x/sys v0.0.0-20191026070338-33540a1f6037 // indirect
)
